module github.com/articulate/terraform-provider-ohdear

go 1.17

require (
	github.com/go-resty/resty/v2 v2.7.0
	github.com/hashicorp/terraform-plugin-docs v0.13.0
	github.com/hashicorp/terraform-plugin-sdk/v2 v2.19.0
	github.com/jarcoal/httpmock v1.2.0
	github.com/stretchr/testify v1.8.0
)

require (
	github.com/Masterminds/goutils v1.1.1 // indirect
	github.com/Masterminds/semver/v3 v3.1.1 // indirect
	github.com/Masterminds/sprig/v3 v3.2.2 // indirect
	github.com/agext/levenshtein v1.2.2 // indirect
	github.com/apparentlymart/go-cidr v1.1.0 // indirect
	github.com/apparentlymart/go-textseg/v13 v13.0.0 // indirect
	github.com/armon/go-radix v1.0.0 // indirect
	github.com/bgentry/speakeasy v0.1.0 // indirect
	github.com/davecgh/go-spew v1.1.1 // indirect
	github.com/fatih/color v1.13.0 // indirect
	github.com/golang/protobuf v1.5.2 // indirect
	github.com/google/go-cmp v0.5.8 // indirect
	github.com/google/uuid v1.3.0 // indirect
	github.com/hashicorp/errwrap v1.1.0 // indirect
	github.com/hashicorp/go-checkpoint v0.5.0 // indirect
	github.com/hashicorp/go-cleanhttp v0.5.2 // indirect
	github.com/hashicorp/go-cty v1.4.1-0.20200414143053-d3edf31b6320 // indirect
	github.com/hashicorp/go-hclog v1.2.1 // indirect
	github.com/hashicorp/go-multierror v1.1.1 // indirect
	github.com/hashicorp/go-plugin v1.4.4 // indirect
	github.com/hashicorp/go-uuid v1.0.3 // indirect
	github.com/hashicorp/go-version v1.6.0 // indirect
	github.com/hashicorp/hc-install v0.4.0 // indirect
	github.com/hashicorp/hcl/v2 v2.13.0 // indirect
	github.com/hashicorp/logutils v1.0.0 // indirect
	github.com/hashicorp/terraform-exec v0.17.2 // indirect
	github.com/hashicorp/terraform-json v0.14.0 // indirect
	github.com/hashicorp/terraform-plugin-go v0.12.0 // indirect
	github.com/hashicorp/terraform-plugin-log v0.6.0 // indirect
	github.com/hashicorp/terraform-registry-address v0.0.0-20220623143253-7d51757b572c // indirect
	github.com/hashicorp/terraform-svchost v0.0.0-20200729002733-f050f53b9734 // indirect
	github.com/hashicorp/yamux v0.0.0-20181012175058-2f1d1f20f75d // indirect
	github.com/huandu/xstrings v1.3.2 // indirect
	github.com/imdario/mergo v0.3.13 // indirect
	github.com/mattn/go-colorable v0.1.12 // indirect
	github.com/mattn/go-isatty v0.0.14 // indirect
	github.com/mitchellh/cli v1.1.4 // indirect
	github.com/mitchellh/copystructure v1.2.0 // indirect
	github.com/mitchellh/go-testing-interface v1.14.1 // indirect
	github.com/mitchellh/go-wordwrap v1.0.0 // indirect
	github.com/mitchellh/mapstructure v1.5.0 // indirect
	github.com/mitchellh/reflectwalk v1.0.2 // indirect
	github.com/oklog/run v1.0.0 // indirect
	github.com/pmezard/go-difflib v1.0.0 // indirect
	github.com/posener/complete v1.2.3 // indirect
	github.com/russross/blackfriday v1.6.0 // indirect
	github.com/shopspring/decimal v1.3.1 // indirect
	github.com/spf13/cast v1.5.0 // indirect
	github.com/vmihailenco/msgpack v4.0.4+incompatible // indirect
	github.com/vmihailenco/msgpack/v4 v4.3.12 // indirect
	github.com/vmihailenco/tagparser v0.1.1 // indirect
	github.com/zclconf/go-cty v1.10.0 // indirect
	golang.org/x/crypto v0.0.0-20220622213112-05595931fe9d // indirect
	golang.org/x/net v0.0.0-20211112202133-69e39bad7dc2 // indirect
	golang.org/x/sys v0.0.0-20220627191245-f75cf1eec38b // indirect
	golang.org/x/text v0.3.7 // indirect
	google.golang.org/appengine v1.6.6 // indirect
	google.golang.org/genproto v0.0.0-20200711021454-869866162049 // indirect
	google.golang.org/grpc v1.48.0 // indirect
	google.golang.org/protobuf v1.28.0 // indirect
	gopkg.in/yaml.v3 v3.0.1 // indirect
)
